module health_checker

go 1.19

require (
	github.com/go-resty/resty/v2 v2.7.0
	github.com/gofiber/fiber/v2 v2.41.0
	github.com/guregu/null v4.0.0+incompatible
	github.com/jackc/pgx v3.6.2+incompatible
	github.com/jmoiron/sqlx v1.3.5
	github.com/lib/pq v1.10.7
	github.com/spf13/viper v1.15.0
)

require (
	github.com/andybalholm/brotli v1.0.4 // indirect
	github.com/cockroachdb/apd v1.1.0 // indirect
	github.com/fsnotify/fsnotify v1.6.0 // indirect
	github.com/gofrs/uuid v4.4.0+incompatible // indirect
	github.com/hashicorp/hcl v1.0.0 // indirect
	github.com/jackc/fake v0.0.0-20150926172116-812a484cc733 // indirect
	github.com/klauspost/compress v1.15.9 // indirect
	github.com/magiconair/properties v1.8.7 // indirect
	github.com/mattn/go-colorable v0.1.13 // indirect
	github.com/mattn/go-isatty v0.0.17 // indirect
	github.com/mattn/go-runewidth v0.0.14 // indirect
	github.com/mitchellh/mapstructure v1.5.0 // indirect
	github.com/pelletier/go-toml/v2 v2.0.6 // indirect
	github.com/pkg/errors v0.9.1 // indirect
	github.com/rivo/uniseg v0.2.0 // indirect
	github.com/shopspring/decimal v1.3.1 // indirect
	github.com/spf13/afero v1.9.3 // indirect
	github.com/spf13/cast v1.5.0 // indirect
	github.com/spf13/jwalterweatherman v1.1.0 // indirect
	github.com/spf13/pflag v1.0.5 // indirect
	github.com/subosito/gotenv v1.4.2 // indirect
	github.com/valyala/bytebufferpool v1.0.0 // indirect
	github.com/valyala/fasthttp v1.43.0 // indirect
	github.com/valyala/tcplisten v1.0.0 // indirect
	golang.org/x/crypto v0.0.0-20220525230936-793ad666bf5e // indirect
	golang.org/x/net v0.4.0 // indirect
	golang.org/x/sys v0.3.0 // indirect
	golang.org/x/text v0.5.0 // indirect
	gopkg.in/ini.v1 v1.67.0 // indirect
	gopkg.in/yaml.v3 v3.0.1 // indirect
)
